TP1/TP1.sim/sim_1/behav/xsim/simulate.log
Time resolution is 1 ps
Starting ALU testbench...
Testing                                                                              ADD: A= 15, B= 10, Op=100000
  Result:   0 (expected  25), Zero: 1 (expected 0), Carry: x (expected 0)
  ERROR: Mismatch detected!

Testing                                                                   ADD with carry: A=255, B=  1, Op=100000
  Result:   0 (expected   0), Zero: 1 (expected 1), Carry: x (expected 1)
  ERROR: Mismatch detected!

Testing                                                                              SUB: A= 20, B=  5, Op=100010
  Result:   0 (expected  15), Zero: 1 (expected 0), Carry: x (expected 0)
  ERROR: Mismatch detected!

Testing                                                                  SUB zero result: A= 10, B= 10, Op=100010
  Result:   0 (expected   0), Zero: 1 (expected 1), Carry: x (expected 0)
  ERROR: Mismatch detected!

Testing                                                                              AND: A=240, B=170, Op=100100
  Result:   0 (expected 160), Zero: 1 (expected 0), Carry: x (expected 0)
  ERROR: Mismatch detected!

Testing                                                                  AND zero result: A=240, B= 15, Op=100100
  Result:   0 (expected   0), Zero: 1 (expected 1), Carry: x (expected 0)
  ERROR: Mismatch detected!

Testing                                                                               OR: A=240, B= 15, Op=100101
  Result:   0 (expected 255), Zero: 1 (expected 0), Carry: x (expected 0)
  ERROR: Mismatch detected!

Testing                                                                              XOR: A=240, B=170, Op=100110
  Result:   0 (expected  90), Zero: 1 (expected 0), Carry: x (expected 0)
  ERROR: Mismatch detected!

Testing                                                                  XOR zero result: A=170, B=170, Op=100110
  Result:   0 (expected   0), Zero: 1 (expected 1), Carry: x (expected 0)
  ERROR: Mismatch detected!

Testing                                                                              SRA: A=128, B=  1, Op=000011
  Result:   0 (expected 192), Zero: 1 (expected 0), Carry: x (expected 0)
  ERROR: Mismatch detected!

Testing                                                                     SRA positive: A= 64, B=  2, Op=000011
  Result:   0 (expected  16), Zero: 1 (expected 0), Carry: x (expected 0)
  ERROR: Mismatch detected!

Testing                                                                              SRL: A=128, B=  1, Op=000010
  Result:   0 (expected  64), Zero: 1 (expected 0), Carry: x (expected 0)
  ERROR: Mismatch detected!

Testing                                                                              SRL: A=240, B=  4, Op=000010
  Result:   0 (expected  15), Zero: 1 (expected 0), Carry: x (expected 0)
  ERROR: Mismatch detected!

Testing                                                                              NOR: A=240, B= 15, Op=100111
  Result:   0 (expected   0), Zero: 1 (expected 1), Carry: x (expected 0)
  ERROR: Mismatch detected!

Testing                                                                    NOR all zeros: A=  0, B=  0, Op=100111
  Result:   0 (expected 255), Zero: 1 (expected 0), Carry: x (expected 0)
  ERROR: Mismatch detected!

Testing                                                                     Default case: A=100, B= 50, Op=111111
  Result:   0 (expected   0), Zero: 1 (expected 1), Carry: x (expected 0)
  ERROR: Mismatch detected!

Testbench completed!
$finish called at time : 995 ns : File "/home/franco/TP1/TP1.srcs/sim_1/new/sim.v" Line 149
